%YAML 1.1
%TAG !u! tag:unity3d.com,2011:
--- !u!74 &7400000
AnimationClip:
  m_ObjectHideFlags: 0
  m_PrefabParentObject: {fileID: 0}
  m_PrefabInternal: {fileID: 0}
  m_Name: HopperAnim
  serializedVersion: 6
  m_Legacy: 0
  m_Compressed: 0
  m_UseHighQualityCurve: 1
  m_RotationCurves:
  - curve:
      serializedVersion: 2
      m_Curve:
      - time: 0
        value: {x: -0, y: -.707106769, z: -0, w: -.707106769}
        inSlope: {x: 0, y: -1.09605432, z: 0, w: 1.12513304}
        outSlope: {x: 0, y: -1.09605432, z: 0, w: 1.12513304}
        tangentMode: 0
      - time: .0166666675
        value: {x: -0, y: -.725374341, z: -0, w: -.688354552}
        inSlope: {x: 0, y: -1.08114302, z: 0, w: 1.13928604}
        outSlope: {x: 0, y: -1.08114302, z: 0, w: 1.13928604}
        tangentMode: 0
      - time: .0333333351
        value: {x: -0, y: -.74314487, z: -0, w: -.669130564}
        inSlope: {x: 0, y: -1.05094838, z: 0, w: 1.16719532}
        outSlope: {x: 0, y: -1.05094838, z: 0, w: 1.16719532}
        tangentMode: 0
      - time: .0500000045
        value: {x: -0, y: -.760405958, z: -0, w: -.649448037}
        inSlope: {x: 0, y: -1.02003157, z: 0, w: 1.19430351}
        outSlope: {x: 0, y: -1.02003157, z: 0, w: 1.19430351}
        tangentMode: 0
      - time: .0666666701
        value: {x: -0, y: -.777145922, z: -0, w: -.629320443}
        inSlope: {x: 0, y: -.988420963, z: 0, w: 1.22059834}
        outSlope: {x: 0, y: -.988420963, z: 0, w: 1.22059834}
        tangentMode: 0
      - time: .0833333358
        value: {x: -0, y: -.793353319, z: -0, w: -.60876143}
        inSlope: {x: 0, y: -.956132472, z: 0, w: 1.24605429}
        outSlope: {x: 0, y: -.956132472, z: 0, w: 1.24605429}
        tangentMode: 0
      - time: .100000001
        value: {x: -0, y: -.809017003, z: -0, w: -.587785304}
        inSlope: {x: 0, y: -.923186004, z: 0, w: 1.27065551}
        outSlope: {x: 0, y: -.923186004, z: 0, w: 1.27065551}
        tangentMode: 0
      - time: .116666667
        value: {x: -0, y: -.824126184, z: -0, w: -.56640625}
        inSlope: {x: 0, y: -.889606357, z: 0, w: 1.29438734}
        outSlope: {x: 0, y: -.889606357, z: 0, w: 1.29438734}
        tangentMode: 0
      - time: .13333334
        value: {x: -0, y: -.838670552, z: -0, w: -.544639051}
        inSlope: {x: 0, y: -.855418921, z: 0, w: 1.31722903}
        outSlope: {x: 0, y: -.855418921, z: 0, w: 1.31722903}
        tangentMode: 0
      - time: .150000006
        value: {x: -0, y: -.852640152, z: -0, w: -.522498608}
        inSlope: {x: 0, y: -.820646942, z: 0, w: 1.3391726}
        outSlope: {x: 0, y: -.820646942, z: 0, w: 1.3391726}
        tangentMode: 0
      - time: .166666672
        value: {x: -0, y: -.866025448, z: -0, w: -.49999997}
        inSlope: {x: 0, y: -.785309732, z: 0, w: 1.36019564}
        outSlope: {x: 0, y: -.785309732, z: 0, w: 1.36019564}
        tangentMode: 0
      - time: .183333337
        value: {x: -0, y: -.878817141, z: -0, w: -.477158755}
        inSlope: {x: 0, y: -.749432504, z: 0, w: 1.38028359}
        outSlope: {x: 0, y: -.749432504, z: 0, w: 1.38028359}
        tangentMode: 0
      - time: .200000003
        value: {x: -0, y: -.891006529, z: -0, w: -.453990519}
        inSlope: {x: 0, y: -.713043869, z: 0, w: 1.39942837}
        outSlope: {x: 0, y: -.713043869, z: 0, w: 1.39942837}
        tangentMode: 0
      - time: .216666669
        value: {x: -0, y: -.902585268, z: -0, w: -.430511147}
        inSlope: {x: 0, y: -.676168859, z: 0, w: 1.41761732}
        outSlope: {x: 0, y: -.676168859, z: 0, w: 1.41761732}
        tangentMode: 0
      - time: .233333334
        value: {x: -0, y: -.913545489, z: -0, w: -.406736612}
        inSlope: {x: 0, y: -.638827145, z: 0, w: 1.43483174}
        outSlope: {x: 0, y: -.638827145, z: 0, w: 1.43483174}
        tangentMode: 0
      - time: .25
        value: {x: -0, y: -.923879504, z: -0, w: -.382683426}
        inSlope: {x: 0, y: -.601047039, z: 0, w: 1.45105839}
        outSlope: {x: 0, y: -.601047039, z: 0, w: 1.45105839}
        tangentMode: 0
      - time: .266666681
        value: {x: -0, y: -.933580399, z: -0, w: -.35836798}
        inSlope: {x: 0, y: -.562859297, z: 0, w: 1.46629453}
        outSlope: {x: 0, y: -.562859297, z: 0, w: 1.46629453}
        tangentMode: 0
      - time: .283333361
        value: {x: -0, y: -.942641497, z: -0, w: -.333806902}
        inSlope: {x: 0, y: -.524283767, z: 0, w: 1.48052907}
        outSlope: {x: 0, y: -.524283767, z: 0, w: 1.48052907}
        tangentMode: 0
      - time: .300000042
        value: {x: -0, y: -.95105654, z: -0, w: -.309016973}
        inSlope: {x: 0, y: -.485347092, z: 0, w: 1.49374866}
        outSlope: {x: 0, y: -.485347092, z: 0, w: 1.49374866}
        tangentMode: 0
      - time: .316666722
        value: {x: -0, y: -.958819747, z: -0, w: -.284015238}
        inSlope: {x: 0, y: -.446079612, z: 0, w: 1.50593925}
        outSlope: {x: 0, y: -.446079612, z: 0, w: 1.50593925}
        tangentMode: 0
      - time: .333333403
        value: {x: -0, y: -.965925872, z: -0, w: -.258818954}
        inSlope: {x: 0, y: -.398234397, z: 0, w: 1.4827342}
        outSlope: {x: 0, y: -.398234397, z: 0, w: 1.4827342}
        tangentMode: 0
      - time: .350000083
        value: {x: -0, y: -.972094238, z: -0, w: -.234590724}
        inSlope: {x: 0, y: -.340268314, z: 0, w: 1.40435922}
        outSlope: {x: 0, y: -.340268314, z: 0, w: 1.40435922}
        tangentMode: 0
      - time: .366666764
        value: {x: -0, y: -.977268159, z: -0, w: -.212006941}
        inSlope: {x: 0, y: -.288732409, z: 0, w: 1.32758999}
        outSlope: {x: 0, y: -.288732409, z: 0, w: 1.32758999}
        tangentMode: 0
      - time: .383333445
        value: {x: -0, y: -.981718659, z: -0, w: -.190337688}
        inSlope: {x: 0, y: -.251294166, z: 0, w: 1.2952081}
        outSlope: {x: 0, y: -.251294166, z: 0, w: 1.2952081}
        tangentMode: 0
      - time: .400000125
        value: {x: -0, y: -.985644639, z: -0, w: -.1688333}
        inSlope: {x: 0, y: -.223735392, z: 0, w: 1.30821824}
        outSlope: {x: 0, y: -.223735392, z: 0, w: 1.30821824}
        tangentMode: 0
      - time: .416666806
        value: {x: -0, y: -.989176512, z: -0, w: -.146730378}
        inSlope: {x: 0, y: -.20191294, z: 0, w: 1.36735213}
        outSlope: {x: 0, y: -.20191294, z: 0, w: 1.36735213}
        tangentMode: 0
      - time: .433333486
        value: {x: -0, y: -.992375076, z: -0, w: -.123254858}
        inSlope: {x: 0, y: -.181399435, z: 0, w: 1.47312689}
        outSlope: {x: 0, y: -.181399435, z: 0, w: 1.47312689}
        tangentMode: 0
      - time: .450000167
        value: {x: -0, y: -.995223165, z: -0, w: -.097626105}
        inSlope: {x: 0, y: -.15712367, z: 0, w: 1.62585187}
        outSlope: {x: 0, y: -.15712367, z: 0, w: 1.62585187}
        tangentMode: 0
      - time: .466666847
        value: {x: -0, y: -.997612536, z: -0, w: -.0690597519}
        inSlope: {x: 0, y: -.123013154, z: 0, w: 1.82556021}
        outSlope: {x: 0, y: -.123013154, z: 0, w: 1.82556021}
        tangentMode: 0
      - time: .483333528
        value: {x: -0, y: -.999323606, z: -0, w: -.0367740467}
        inSlope: {x: 0, y: -.071623899, z: 0, w: 2.071805}
        outSlope: {x: 0, y: -.071623899, z: 0, w: 2.071805}
        tangentMode: 0
      - time: .500000179
        value: {x: -0, y: -1, z: -0, w: 4.01339264e-07}
        inSlope: {x: 0, y: .00585973822, z: 0, w: 2.35558128}
        outSlope: {x: 0, y: .00585973822, z: 0, w: 2.35558128}
        tangentMode: 0
      - time: .51666683
        value: {x: -0, y: -.999128282, z: -0, w: .0417452529}
        inSlope: {x: 0, y: .115993127, z: 0, w: 2.63554025}
        outSlope: {x: 0, y: .115993127, z: 0, w: 2.63554025}
        tangentMode: 0
      - time: .53333348
        value: {x: -0, y: -.996133566, z: -0, w: .0878516585}
        inSlope: {x: 0, y: .258386374, z: 0, w: 2.86969423}
        outSlope: {x: 0, y: .258386374, z: 0, w: 2.86969423}
        tangentMode: 0
      - time: .550000131
        value: {x: -0, y: -.990515411, z: -0, w: .13740164}
        inSlope: {x: 0, y: .427229822, z: 0, w: 3.04760981}
        outSlope: {x: 0, y: .427229822, z: 0, w: 3.04760981}
        tangentMode: 0
      - time: .566666782
        value: {x: -0, y: -.981892586, z: -0, w: .189438552}
        inSlope: {x: 0, y: .614526868, z: 0, w: 3.16736698}
        outSlope: {x: 0, y: .614526868, z: 0, w: 3.16736698}
        tangentMode: 0
      - time: .583333433
        value: {x: -0, y: -.970031202, z: -0, w: .242980435}
        inSlope: {x: 0, y: .810843289, z: 0, w: 3.22809982}
        outSlope: {x: 0, y: .810843289, z: 0, w: 3.22809982}
        tangentMode: 0
      - time: .600000083
        value: {x: -0, y: -.954864502, z: -0, w: .297041774}
        inSlope: {x: 0, y: 1.00581861, z: 0, w: 3.23030138}
        outSlope: {x: 0, y: 1.00581861, z: 0, w: 3.23030138}
        tangentMode: 0
      - time: .616666734
        value: {x: -0, y: -.936503947, z: -0, w: .350657046}
        inSlope: {x: 0, y: 1.18870258, z: 0, w: 3.17594767}
        outSlope: {x: 0, y: 1.18870258, z: 0, w: 3.17594767}
        tangentMode: 0
      - time: .633333385
        value: {x: -0, y: -.915241122, z: -0, w: .402906597}
        inSlope: {x: 0, y: 1.34889674, z: 0, w: 3.06850481}
        outSlope: {x: 0, y: 1.34889674, z: 0, w: 3.06850481}
        tangentMode: 0
      - time: .650000036
        value: {x: -0, y: -.891540766, z: -0, w: .452940434}
        inSlope: {x: 0, y: 1.47647333, z: 0, w: 2.91280675}
        outSlope: {x: 0, y: 1.47647333, z: 0, w: 2.91280675}
        tangentMode: 0
      - time: .666666687
        value: {x: -0, y: -.866025388, z: -0, w: .50000006}
        inSlope: {x: 0, y: 1.58610797, z: 0, w: 2.7509613}
        outSlope: {x: 0, y: 1.58610797, z: 0, w: 2.7509613}
        tangentMode: 0
      - time: .683333337
        value: {x: -0, y: -.838670552, z: -0, w: .544639051}
        inSlope: {x: 0, y: 1.71025324, z: 0, w: 2.63355637}
        outSlope: {x: 0, y: 1.71025324, z: 0, w: 2.63355637}
        tangentMode: 0
      - time: .699999988
        value: {x: -0, y: -.809017003, z: -0, w: .587785184}
        inSlope: {x: 0, y: 1.84573698, z: 0, w: 2.54044056}
        outSlope: {x: 0, y: 1.84573698, z: 0, w: 2.54044056}
        tangentMode: 0
      - time: .716666639
        value: {x: -0, y: -.777146041, z: -0, w: .629320323}
        inSlope: {x: 0, y: 1.9761641, z: 0, w: 2.44036198}
        outSlope: {x: 0, y: 1.9761641, z: 0, w: 2.44036198}
        tangentMode: 0
      - time: .73333329
        value: {x: -0, y: -.743144929, z: -0, w: .669130504}
        inSlope: {x: 0, y: 2.10117483, z: 0, w: 2.33359027}
        outSlope: {x: 0, y: 2.10117483, z: 0, w: 2.33359027}
        tangentMode: 0
      - time: .74999994
        value: {x: -0, y: -.707106948, z: -0, w: .70710659}
        inSlope: {x: 0, y: 2.22042608, z: 0, w: 2.22042608}
        outSlope: {x: 0, y: 2.22042608, z: 0, w: 2.22042608}
        tangentMode: 0
      - time: .766666591
        value: {x: -0, y: -.669130802, z: -0, w: .743144631}
        inSlope: {x: 0, y: 2.33359027, z: 0, w: 2.10117674}
        outSlope: {x: 0, y: 2.33359027, z: 0, w: 2.10117674}
        tangentMode: 0
      - time: .783333242
        value: {x: -0, y: -.629320681, z: -0, w: .777145743}
        inSlope: {x: 0, y: 2.44036555, z: 0, w: 1.97616935}
        outSlope: {x: 0, y: 2.44036555, z: 0, w: 1.97616935}
        tangentMode: 0
      - time: .799999893
        value: {x: -0, y: -.587785363, z: -0, w: .809016883}
        inSlope: {x: 0, y: 2.5404458, z: 0, w: 1.84574246}
        outSlope: {x: 0, y: 2.5404458, z: 0, w: 1.84574246}
        tangentMode: 0
      - time: .816666543
        value: {x: -0, y: -.54463923, z: -0, w: .838670433}
        inSlope: {x: 0, y: 2.63355637, z: 0, w: 1.71025324}
        outSlope: {x: 0, y: 2.63355637, z: 0, w: 1.71025324}
        tangentMode: 0
      - time: .833333194
        value: {x: -0, y: -.500000238, z: -0, w: .866025269}
        inSlope: {x: 0, y: 2.75095415, z: 0, w: 1.58610606}
        outSlope: {x: 0, y: 2.75095415, z: 0, w: 1.58610606}
        tangentMode: 0
      - time: .849999845
        value: {x: -0, y: -.452940851, z: -0, w: .891540587}
        inSlope: {x: 0, y: 2.9128058, z: 0, w: 1.47647333}
        outSlope: {x: 0, y: 2.9128058, z: 0, w: 1.47647333}
        tangentMode: 0
      - time: .866666496
        value: {x: -0, y: -.402906805, z: -0, w: .915241003}
        inSlope: {x: 0, y: 3.06850719, z: 0, w: 1.34889841}
        outSlope: {x: 0, y: 3.06850719, z: 0, w: 1.34889841}
        tangentMode: 0
      - time: .883333147
        value: {x: -0, y: -.350657374, z: -0, w: .936503828}
        inSlope: {x: 0, y: 3.17594433, z: 0, w: 1.18870258}
        outSlope: {x: 0, y: 3.17594433, z: 0, w: 1.18870258}
        tangentMode: 0
      - time: .899999797
        value: {x: -0, y: -.297042102, z: -0, w: .954864383}
        inSlope: {x: 0, y: 3.23029423, z: 0, w: 1.00581682}
        outSlope: {x: 0, y: 3.23029423, z: 0, w: 1.00581682}
        tangentMode: 0
      - time: .916666448
        value: {x: -0, y: -.242981002, z: -0, w: .970031023}
        inSlope: {x: 0, y: 3.22809601, z: 0, w: .810843289}
        outSlope: {x: 0, y: 3.22809601, z: 0, w: .810843289}
        tangentMode: 0
      - time: .933333099
        value: {x: -0, y: -.189438999, z: -0, w: .981892467}
        inSlope: {x: 0, y: 3.16737366, z: 0, w: .614530444}
        outSlope: {x: 0, y: 3.16737366, z: 0, w: .614530444}
        tangentMode: 0
      - time: .94999975
        value: {x: -0, y: -.137401983, z: -0, w: .990515351}
        inSlope: {x: 0, y: 3.04761267, z: 0, w: .427233398}
        outSlope: {x: 0, y: 3.04761267, z: 0, w: .427233398}
        tangentMode: 0
      - time: .9666664
        value: {x: -0, y: -.0878520012, z: -0, w: .996133566}
        inSlope: {x: 0, y: 2.86968708, z: 0, w: .258388162}
        outSlope: {x: 0, y: 2.86968708, z: 0, w: .258388162}
        tangentMode: 0
      - time: .983333051
        value: {x: -0, y: -.0417458378, z: -0, w: .999128282}
        inSlope: {x: 0, y: 2.63553667, z: 0, w: .115993127}
        outSlope: {x: 0, y: 2.63553667, z: 0, w: .115993127}
        tangentMode: 0
      - time: .999999702
        value: {x: -0, y: -8.66251526e-07, z: -0, w: 1}
        inSlope: {x: 0, y: 2.35558796, z: 0, w: .00585981086}
        outSlope: {x: 0, y: 2.35558796, z: 0, w: .00585981086}
        tangentMode: 0
      - time: 1.01666641
        value: {x: -0, y: .0367738195, z: -0, w: .999323606}
        inSlope: {x: 0, y: 2.07180977, z: 0, w: -.0716239139}
        outSlope: {x: 0, y: 2.07180977, z: 0, w: -.0716239139}
        tangentMode: 0
      - time: 1.03333306
        value: {x: -0, y: .069059521, z: -0, w: .997612536}
        inSlope: {x: 0, y: 1.82556725, z: 0, w: -.123013377}
        outSlope: {x: 0, y: 1.82556725, z: 0, w: -.123013377}
        tangentMode: 0
      - time: 1.04999971
        value: {x: -0, y: .0976260006, z: -0, w: .995223165}
        inSlope: {x: 0, y: 1.62585497, z: 0, w: -.157123953}
        outSlope: {x: 0, y: 1.62585497, z: 0, w: -.157123953}
        tangentMode: 0
      - time: 1.06666636
        value: {x: -0, y: .123254634, z: -0, w: .992375076}
        inSlope: {x: 0, y: 1.47312248, z: 0, w: -.181397974}
        outSlope: {x: 0, y: 1.47312248, z: 0, w: -.181397974}
        tangentMode: 0
      - time: 1.08333302
        value: {x: -0, y: .146730036, z: -0, w: .989176571}
        inSlope: {x: 0, y: 1.36734796, z: 0, w: -.201911524}
        outSlope: {x: 0, y: 1.36734796, z: 0, w: -.201911524}
        tangentMode: 0
      - time: 1.09999967
        value: {x: -0, y: .168832853, z: -0, w: .985644698}
        inSlope: {x: 0, y: 1.30822051, z: 0, w: -.22373578}
        outSlope: {x: 0, y: 1.30822051, z: 0, w: -.22373578}
        tangentMode: 0
      - time: 1.11666632
        value: {x: -0, y: .190337345, z: -0, w: .981718719}
        inSlope: {x: 0, y: 1.29521716, z: 0, w: -.251294613}
        outSlope: {x: 0, y: 1.29521716, z: 0, w: -.251294613}
        tangentMode: 0
      - time: 1.13333297
        value: {x: -0, y: .212006718, z: -0, w: .977268219}
        inSlope: {x: 0, y: 1.32759285, z: 0, w: -.288732946}
        outSlope: {x: 0, y: 1.32759285, z: 0, w: -.288732946}
        tangentMode: 0
      - time: 1.14999962
        value: {x: -0, y: .234590396, z: -0, w: .972094297}
        inSlope: {x: 0, y: 1.40435863, z: 0, w: -.34026894}
        outSlope: {x: 0, y: 1.40435863, z: 0, w: -.34026894}
        tangentMode: 0
      - time: 1.16666627
        value: {x: -0, y: .258818626, z: -0, w: .965925932}
        inSlope: {x: 0, y: 1.48273325, z: 0, w: -.398231536}
        outSlope: {x: 0, y: 1.48273325, z: 0, w: -.398231536}
        tangentMode: 0
      - time: 1.18333292
        value: {x: -0, y: .284014791, z: -0, w: .958819926}
        inSlope: {x: 0, y: 1.50593841, z: 0, w: -.446078598}
        outSlope: {x: 0, y: 1.50593841, z: 0, w: -.446078598}
        tangentMode: 0
      - time: 1.19999957
        value: {x: -0, y: .309016526, z: -0, w: .951056659}
        inSlope: {x: 0, y: 1.49373889, z: 0, w: -.48534441}
        outSlope: {x: 0, y: 1.49373889, z: 0, w: -.48534441}
        tangentMode: 0
      - time: 1.21666622
        value: {x: -0, y: .333806038, z: -0, w: .942641795}
        inSlope: {x: 0, y: 1.4805218, z: 0, w: -.524279356}
        outSlope: {x: 0, y: 1.4805218, z: 0, w: -.524279356}
        tangentMode: 0
      - time: 1.23333287
        value: {x: -0, y: .358367205, z: -0, w: .933580697}
        inSlope: {x: 0, y: 1.46629715, z: 0, w: -.562856734}
        outSlope: {x: 0, y: 1.46629715, z: 0, w: -.562856734}
        tangentMode: 0
      - time: 1.24999952
        value: {x: -0, y: .382682562, z: -0, w: .923879921}
        inSlope: {x: 0, y: 1.45106125, z: 0, w: -.601047873}
        outSlope: {x: 0, y: 1.45106125, z: 0, w: -.601047873}
        tangentMode: 0
      - time: 1.26666617
        value: {x: -0, y: .406735867, z: -0, w: .913545787}
        inSlope: {x: 0, y: 1.43483663, z: 0, w: -.63882947}
        outSlope: {x: 0, y: 1.43483663, z: 0, w: -.63882947}
        tangentMode: 0
      - time: 1.28333282
        value: {x: -0, y: .430510402, z: -0, w: .902585626}
        inSlope: {x: 0, y: 1.41761589, z: 0, w: -.676165879}
        outSlope: {x: 0, y: 1.41761589, z: 0, w: -.676165879}
        tangentMode: 0
      - time: 1.29999948
        value: {x: -0, y: .453989685, z: -0, w: .891006947}
        inSlope: {x: 0, y: 1.39943051, z: 0, w: -.713044524}
        outSlope: {x: 0, y: 1.39943051, z: 0, w: -.713044524}
        tangentMode: 0
      - time: 1.31666613
        value: {x: -0, y: .47715804, z: -0, w: .878817499}
        inSlope: {x: 0, y: 1.38027954, z: 0, w: -.749429584}
        outSlope: {x: 0, y: 1.38027954, z: 0, w: -.749429584}
        tangentMode: 0
      - time: 1.33333278
        value: {x: -0, y: .499998957, z: -0, w: .866025984}
        inSlope: {x: 0, y: 1.36018801, z: 0, w: -.785303235}
        outSlope: {x: 0, y: 1.36018801, z: 0, w: -.785303235}
        tangentMode: 0
      - time: 1.34999943
        value: {x: -0, y: .522497594, z: -0, w: .852640748}
        inSlope: {x: 0, y: 1.33917737, z: 0, w: -.820645869}
        outSlope: {x: 0, y: 1.33917737, z: 0, w: -.820645869}
        tangentMode: 0
      - time: 1.36666608
        value: {x: -0, y: .544638157, z: -0, w: .838671148}
        inSlope: {x: 0, y: 1.31723237, z: 0, w: -.855418086}
        outSlope: {x: 0, y: 1.31723237, z: 0, w: -.855418086}
        tangentMode: 0
      - time: 1.38333273
        value: {x: -0, y: .566405296, z: -0, w: .82412684}
        inSlope: {x: 0, y: 1.29438698, z: 0, w: -.889605522}
        outSlope: {x: 0, y: 1.29438698, z: 0, w: -.889605522}
        tangentMode: 0
      - time: 1.39999938
        value: {x: -0, y: .58778435, z: -0, w: .809017658}
        inSlope: {x: 0, y: 1.27066195, z: 0, w: -.923186839}
        outSlope: {x: 0, y: 1.27066195, z: 0, w: -.923186839}
        tangentMode: 0
      - time: 1.41666603
        value: {x: -0, y: .608760655, z: -0, w: .793353975}
        inSlope: {x: 0, y: 1.24605536, z: 0, w: -.956129789}
        outSlope: {x: 0, y: 1.24605536, z: 0, w: -.956129789}
        tangentMode: 0
      - time: 1.43333268
        value: {x: -0, y: .629319489, z: -0, w: .777146697}
        inSlope: {x: 0, y: 1.22059941, z: 0, w: -.98842001}
        outSlope: {x: 0, y: 1.22059941, z: 0, w: -.98842001}
        tangentMode: 0
      - time: 1.44999933
        value: {x: -0, y: .649447262, z: -0, w: .760406673}
        inSlope: {x: 0, y: 1.19430828, z: 0, w: -1.02003253}
        outSlope: {x: 0, y: 1.19430828, z: 0, w: -1.02003253}
        tangentMode: 0
      - time: 1.46666598
        value: {x: -0, y: .669129729, z: -0, w: .743145645}
        inSlope: {x: 0, y: 1.16719651, z: 0, w: -1.05094767}
        outSlope: {x: 0, y: 1.16719651, z: 0, w: -1.05094767}
        tangentMode: 0
      - time: 1.48333263
        value: {x: -0, y: .688353777, z: -0, w: .725375116}
        inSlope: {x: 0, y: 1.13928628, z: 0, w: -1.08114195}
        outSlope: {x: 0, y: 1.13928628, z: 0, w: -1.08114195}
        tangentMode: 0
      - time: 1.5
        value: {x: -0, y: .707106709, z: -0, w: .707106829}
        inSlope: {x: 0, y: 1.12512875, z: 0, w: -1.09605122}
        outSlope: {x: 0, y: 1.12512875, z: 0, w: -1.09605122}
        tangentMode: 0
      m_PreInfinity: 2
      m_PostInfinity: 2
    path: 
  m_CompressedRotationCurves: []
  m_PositionCurves:
  - curve:
      serializedVersion: 2
      m_Curve:
      - time: 0
        value: {x: 0, y: 1, z: 0}
        inSlope: {x: 12, y: 0, z: 0}
        outSlope: {x: 12, y: 0, z: 0}
        tangentMode: 0
      - time: .166666672
        value: {x: 2, y: 1, z: 0}
        inSlope: {x: 6, y: 0, z: -9}
        outSlope: {x: 6, y: 0, z: -9}
        tangentMode: 0
      - time: .333333343
        value: {x: 2, y: 1, z: -3}
        inSlope: {x: -6.00000048, y: 6.00000048, z: -9}
        outSlope: {x: -6.00000048, y: 6.00000048, z: -9}
        tangentMode: 0
      - time: .5
        value: {x: 0, y: 3, z: -3}
        inSlope: {x: -9, y: 3.00000072, z: 2.99999976}
        outSlope: {x: -9, y: 3.00000072, z: 2.99999976}
        tangentMode: 0
      - time: .666666687
        value: {x: -1, y: 2, z: -2}
        inSlope: {x: -9.00000095, y: -4.5, z: 6.00000048}
        outSlope: {x: -9.00000095, y: -4.5, z: 6.00000048}
        tangentMode: 0
      - time: .833333313
        value: {x: -3, y: 1.5, z: -1}
        inSlope: {x: -4.50000143, y: -3.00000024, z: 3.00000072}
        outSlope: {x: -4.50000143, y: -3.00000024, z: 3.00000072}
        tangentMode: 0
      - time: 1
        value: {x: -2.5, y: 1, z: -1}
        inSlope: {x: 3.00000024, y: -1.49999988, z: 3.00000072}
        outSlope: {x: 3.00000024, y: -1.49999988, z: 3.00000072}
        tangentMode: 0
      - time: 1.16666663
        value: {x: -2, y: 1, z: 0}
        inSlope: {x: 4.49999905, y: 0, z: 3.00000072}
        outSlope: {x: 4.49999905, y: 0, z: 3.00000072}
        tangentMode: 0
      - time: 1.33333337
        value: {x: -1, y: 1, z: 0}
        inSlope: {x: 5.99999905, y: 0, z: 0}
        outSlope: {x: 5.99999905, y: 0, z: 0}
        tangentMode: 0
      - time: 1.5
        value: {x: 0, y: 1, z: 0}
        inSlope: {x: 6.00000143, y: 0, z: 0}
        outSlope: {x: 6.00000143, y: 0, z: 0}
        tangentMode: 0
      m_PreInfinity: 2
      m_PostInfinity: 2
    path: 
  m_ScaleCurves: []
  m_FloatCurves: []
  m_PPtrCurves: []
  m_SampleRate: 60
  m_WrapMode: 0
  m_Bounds:
    m_Center: {x: 0, y: 0, z: 0}
    m_Extent: {x: 0, y: 0, z: 0}
  m_ClipBindingConstant:
    genericBindings:
    - path: 0
      attribute: 1
      script: {fileID: 0}
      classID: 4
      customType: 0
      isPPtrCurve: 0
    - path: 0
      attribute: 2
      script: {fileID: 0}
      classID: 4
      customType: 0
      isPPtrCurve: 0
    pptrCurveMapping: []
  m_AnimationClipSettings:
    serializedVersion: 2
    m_StartTime: 0
    m_StopTime: 1.5
    m_OrientationOffsetY: 0
    m_Level: 0
    m_CycleOffset: 0
    m_LoopTime: 1
    m_LoopBlend: 1
    m_LoopBlendOrientation: 0
    m_LoopBlendPositionY: 0
    m_LoopBlendPositionXZ: 0
    m_KeepOriginalOrientation: 0
    m_KeepOriginalPositionY: 1
    m_KeepOriginalPositionXZ: 0
    m_HeightFromFeet: 0
    m_Mirror: 0
  m_EditorCurves:
  - curve:
      serializedVersion: 2
      m_Curve:
      - time: 0
        value: 0
        inSlope: 12
        outSlope: 12
        tangentMode: 10
      - time: .166666672
        value: 2
        inSlope: 6
        outSlope: 6
        tangentMode: 10
      - time: .333333343
        value: 2
        inSlope: -6.00000048
        outSlope: -6.00000048
        tangentMode: 10
      - time: .5
        value: 0
        inSlope: -9
        outSlope: -9
        tangentMode: 10
      - time: .666666687
        value: -1
        inSlope: -9.00000095
        outSlope: -9.00000095
        tangentMode: 10
      - time: .833333313
        value: -3
        inSlope: -4.50000143
        outSlope: -4.50000143
        tangentMode: 10
      - time: 1
        value: -2.5
        inSlope: 3.00000024
        outSlope: 3.00000024
        tangentMode: 10
      - time: 1.16666663
        value: -2
        inSlope: 4.49999905
        outSlope: 4.49999905
        tangentMode: 10
      - time: 1.33333337
        value: -1
        inSlope: 5.99999905
        outSlope: 5.99999905
        tangentMode: 10
      - time: 1.5
        value: 0
        inSlope: 6.00000143
        outSlope: 6.00000143
        tangentMode: 10
      m_PreInfinity: 2
      m_PostInfinity: 2
    attribute: m_LocalPosition.x
    path: 
    classID: 4
    script: {fileID: 0}
  - curve:
      serializedVersion: 2
      m_Curve:
      - time: 0
        value: 1
        inSlope: 0
        outSlope: 0
        tangentMode: 10
      - time: .166666672
        value: 1
        inSlope: 0
        outSlope: 0
        tangentMode: 10
      - time: .333333343
        value: 1
        inSlope: 6.00000048
        outSlope: 6.00000048
        tangentMode: 10
      - time: .5
        value: 3
        inSlope: 3.00000072
        outSlope: 3.00000072
        tangentMode: 10
      - time: .666666687
        value: 2
        inSlope: -4.5
        outSlope: -4.5
        tangentMode: 10
      - time: .833333313
        value: 1.5
        inSlope: -3.00000024
        outSlope: -3.00000024
        tangentMode: 10
      - time: 1
        value: 1
        inSlope: -1.49999988
        outSlope: -1.49999988
        tangentMode: 10
      - time: 1.16666663
        value: 1
        inSlope: 0
        outSlope: 0
        tangentMode: 10
      - time: 1.33333337
        value: 1
        inSlope: 0
        outSlope: 0
        tangentMode: 10
      - time: 1.5
        value: 1
        inSlope: 0
        outSlope: 0
        tangentMode: 10
      m_PreInfinity: 2
      m_PostInfinity: 2
    attribute: m_LocalPosition.y
    path: 
    classID: 4
    script: {fileID: 0}
  - curve:
      serializedVersion: 2
      m_Curve:
      - time: 0
        value: 0
        inSlope: 0
        outSlope: 0
        tangentMode: 10
      - time: .166666672
        value: 0
        inSlope: -9
        outSlope: -9
        tangentMode: 10
      - time: .333333343
        value: -3
        inSlope: -9
        outSlope: -9
        tangentMode: 10
      - time: .5
        value: -3
        inSlope: 2.99999976
        outSlope: 2.99999976
        tangentMode: 10
      - time: .666666687
        value: -2
        inSlope: 6.00000048
        outSlope: 6.00000048
        tangentMode: 10
      - time: .833333313
        value: -1
        inSlope: 3.00000072
        outSlope: 3.00000072
        tangentMode: 10
      - time: 1
        value: -1
        inSlope: 3.00000072
        outSlope: 3.00000072
        tangentMode: 10
      - time: 1.16666663
        value: 0
        inSlope: 3.00000072
        outSlope: 3.00000072
        tangentMode: 10
      - time: 1.33333337
        value: 0
        inSlope: 0
        outSlope: 0
        tangentMode: 10
      - time: 1.5
        value: 0
        inSlope: 0
        outSlope: 0
        tangentMode: 10
      m_PreInfinity: 2
      m_PostInfinity: 2
    attribute: m_LocalPosition.z
    path: 
    classID: 4
    script: {fileID: 0}
  - curve:
      serializedVersion: 2
      m_Curve:
      - time: 0
        value: -0
        inSlope: 0
        outSlope: 0
        tangentMode: 0
      - time: .0166666675
        value: -0
        inSlope: 0
        outSlope: 0
        tangentMode: 0
      - time: .0333333351
        value: -0
        inSlope: 0
        outSlope: 0
        tangentMode: 0
      - time: .0500000045
        value: -0
        inSlope: 0
        outSlope: 0
        tangentMode: 0
      - time: .0666666701
        value: -0
        inSlope: 0
        outSlope: 0
        tangentMode: 0
      - time: .0833333358
        value: -0
        inSlope: 0
        outSlope: 0
        tangentMode: 0
      - time: .100000001
        value: -0
        inSlope: 0
        outSlope: 0
        tangentMode: 0
      - time: .116666667
        value: -0
        inSlope: 0
        outSlope: 0
        tangentMode: 0
      - time: .13333334
        value: -0
        inSlope: 0
        outSlope: 0
        tangentMode: 0
      - time: .150000006
        value: -0
        inSlope: 0
        outSlope: 0
        tangentMode: 0
      - time: .166666672
        value: -0
        inSlope: 0
        outSlope: 0
        tangentMode: 0
      - time: .183333337
        value: -0
        inSlope: 0
        outSlope: 0
        tangentMode: 0
      - time: .200000003
        value: -0
        inSlope: 0
        outSlope: 0
        tangentMode: 0
      - time: .216666669
        value: -0
        inSlope: 0
        outSlope: 0
        tangentMode: 0
      - time: .233333334
        value: -0
        inSlope: 0
        outSlope: 0
        tangentMode: 0
      - time: .25
        value: -0
        inSlope: 0
        outSlope: 0
        tangentMode: 0
      - time: .266666681
        value: -0
        inSlope: 0
        outSlope: 0
        tangentMode: 0
      - time: .283333361
        value: -0
        inSlope: 0
        outSlope: 0
        tangentMode: 0
      - time: .300000042
        value: -0
        inSlope: 0
        outSlope: 0
        tangentMode: 0
      - time: .316666722
        value: -0
        inSlope: 0
        outSlope: 0
        tangentMode: 0
      - time: .333333403
        value: -0
        inSlope: 0
        outSlope: 0
        tangentMode: 0
      - time: .350000083
        value: -0
        inSlope: 0
        outSlope: 0
        tangentMode: 0
      - time: .366666764
        value: -0
        inSlope: 0
        outSlope: 0
        tangentMode: 0
      - time: .383333445
        value: -0
        inSlope: 0
        outSlope: 0
        tangentMode: 0
      - time: .400000125
        value: -0
        inSlope: 0
        outSlope: 0
        tangentMode: 0
      - time: .416666806
        value: -0
        inSlope: 0
        outSlope: 0
        tangentMode: 0
      - time: .433333486
        value: -0
        inSlope: 0
        outSlope: 0
        tangentMode: 0
      - time: .450000167
        value: -0
        inSlope: 0
        outSlope: 0
        tangentMode: 0
      - time: .466666847
        value: -0
        inSlope: 0
        outSlope: 0
        tangentMode: 0
      - time: .483333528
        value: -0
        inSlope: 0
        outSlope: 0
        tangentMode: 0
      - time: .500000179
        value: -0
        inSlope: 0
        outSlope: 0
        tangentMode: 0
      - time: .51666683
        value: -0
        inSlope: 0
        outSlope: 0
        tangentMode: 0
      - time: .53333348
        value: -0
        inSlope: 0
        outSlope: 0
        tangentMode: 0
      - time: .550000131
        value: -0
        inSlope: 0
        outSlope: 0
        tangentMode: 0
      - time: .566666782
        value: -0
        inSlope: 0
        outSlope: 0
        tangentMode: 0
      - time: .583333433
        value: -0
        inSlope: 0
        outSlope: 0
        tangentMode: 0
      - time: .600000083
        value: -0
        inSlope: 0
        outSlope: 0
        tangentMode: 0
      - time: .616666734
        value: -0
        inSlope: 0
        outSlope: 0
        tangentMode: 0
      - time: .633333385
        value: -0
        inSlope: 0
        outSlope: 0
        tangentMode: 0
      - time: .650000036
        value: -0
        inSlope: 0
        outSlope: 0
        tangentMode: 0
      - time: .666666687
        value: -0
        inSlope: 0
        outSlope: 0
        tangentMode: 0
      - time: .683333337
        value: -0
        inSlope: 0
        outSlope: 0
        tangentMode: 0
      - time: .699999988
        value: -0
        inSlope: 0
        outSlope: 0
        tangentMode: 0
      - time: .716666639
        value: -0
        inSlope: 0
        outSlope: 0
        tangentMode: 0
      - time: .73333329
        value: -0
        inSlope: 0
        outSlope: 0
        tangentMode: 0
      - time: .74999994
        value: -0
        inSlope: 0
        outSlope: 0
        tangentMode: 0
      - time: .766666591
        value: -0
        inSlope: 0
        outSlope: 0
        tangentMode: 0
      - time: .783333242
        value: -0
        inSlope: 0
        outSlope: 0
        tangentMode: 0
      - time: .799999893
        value: -0
        inSlope: 0
        outSlope: 0
        tangentMode: 0
      - time: .816666543
        value: -0
        inSlope: 0
        outSlope: 0
        tangentMode: 0
      - time: .833333194
        value: -0
        inSlope: 0
        outSlope: 0
        tangentMode: 0
      - time: .849999845
        value: -0
        inSlope: 0
        outSlope: 0
        tangentMode: 0
      - time: .866666496
        value: -0
        inSlope: 0
        outSlope: 0
        tangentMode: 0
      - time: .883333147
        value: -0
        inSlope: 0
        outSlope: 0
        tangentMode: 0
      - time: .899999797
        value: -0
        inSlope: 0
        outSlope: 0
        tangentMode: 0
      - time: .916666448
        value: -0
        inSlope: 0
        outSlope: 0
        tangentMode: 0
      - time: .933333099
        value: -0
        inSlope: 0
        outSlope: 0
        tangentMode: 0
      - time: .94999975
        value: -0
        inSlope: 0
        outSlope: 0
        tangentMode: 0
      - time: .9666664
        value: -0
        inSlope: 0
        outSlope: 0
        tangentMode: 0
      - time: .983333051
        value: -0
        inSlope: 0
        outSlope: 0
        tangentMode: 0
      - time: .999999702
        value: -0
        inSlope: 0
        outSlope: 0
        tangentMode: 0
      - time: 1.01666641
        value: -0
        inSlope: 0
        outSlope: 0
        tangentMode: 0
      - time: 1.03333306
        value: -0
        inSlope: 0
        outSlope: 0
        tangentMode: 0
      - time: 1.04999971
        value: -0
        inSlope: 0
        outSlope: 0
        tangentMode: 0
      - time: 1.06666636
        value: -0
        inSlope: 0
        outSlope: 0
        tangentMode: 0
      - time: 1.08333302
        value: -0
        inSlope: 0
        outSlope: 0
        tangentMode: 0
      - time: 1.09999967
        value: -0
        inSlope: 0
        outSlope: 0
        tangentMode: 0
      - time: 1.11666632
        value: -0
        inSlope: 0
        outSlope: 0
        tangentMode: 0
      - time: 1.13333297
        value: -0
        inSlope: 0
        outSlope: 0
        tangentMode: 0
      - time: 1.14999962
        value: -0
        inSlope: 0
        outSlope: 0
        tangentMode: 0
      - time: 1.16666627
        value: -0
        inSlope: 0
        outSlope: 0
        tangentMode: 0
      - time: 1.18333292
        value: -0
        inSlope: 0
        outSlope: 0
        tangentMode: 0
      - time: 1.19999957
        value: -0
        inSlope: 0
        outSlope: 0
        tangentMode: 0
      - time: 1.21666622
        value: -0
        inSlope: 0
        outSlope: 0
        tangentMode: 0
      - time: 1.23333287
        value: -0
        inSlope: 0
        outSlope: 0
        tangentMode: 0
      - time: 1.24999952
        value: -0
        inSlope: 0
        outSlope: 0
        tangentMode: 0
      - time: 1.26666617
        value: -0
        inSlope: 0
        outSlope: 0
        tangentMode: 0
      - time: 1.28333282
        value: -0
        inSlope: 0
        outSlope: 0
        tangentMode: 0
      - time: 1.29999948
        value: -0
        inSlope: 0
        outSlope: 0
        tangentMode: 0
      - time: 1.31666613
        value: -0
        inSlope: 0
        outSlope: 0
        tangentMode: 0
      - time: 1.33333278
        value: -0
        inSlope: 0
        outSlope: 0
        tangentMode: 0
      - time: 1.34999943
        value: -0
        inSlope: 0
        outSlope: 0
        tangentMode: 0
      - time: 1.36666608
        value: -0
        inSlope: 0
        outSlope: 0
        tangentMode: 0
      - time: 1.38333273
        value: -0
        inSlope: 0
        outSlope: 0
        tangentMode: 0
      - time: 1.39999938
        value: -0
        inSlope: 0
        outSlope: 0
        tangentMode: 0
      - time: 1.41666603
        value: -0
        inSlope: 0
        outSlope: 0
        tangentMode: 0
      - time: 1.43333268
        value: -0
        inSlope: 0
        outSlope: 0
        tangentMode: 0
      - time: 1.44999933
        value: -0
        inSlope: 0
        outSlope: 0
        tangentMode: 0
      - time: 1.46666598
        value: -0
        inSlope: 0
        outSlope: 0
        tangentMode: 0
      - time: 1.48333263
        value: -0
        inSlope: 0
        outSlope: 0
        tangentMode: 0
      - time: 1.5
        value: -0
        inSlope: 0
        outSlope: 0
        tangentMode: 0
      m_PreInfinity: 2
      m_PostInfinity: 2
    attribute: m_LocalRotation.x
    path: 
    classID: 4
    script: {fileID: 0}
  - curve:
      serializedVersion: 2
      m_Curve:
      - time: 0
        value: -.707106769
        inSlope: -1.09605432
        outSlope: -1.09605432
        tangentMode: 0
      - time: .0166666675
        value: -.725374341
        inSlope: -1.08114302
        outSlope: -1.08114302
        tangentMode: 0
      - time: .0333333351
        value: -.74314487
        inSlope: -1.05094838
        outSlope: -1.05094838
        tangentMode: 0
      - time: .0500000045
        value: -.760405958
        inSlope: -1.02003157
        outSlope: -1.02003157
        tangentMode: 0
      - time: .0666666701
        value: -.777145922
        inSlope: -.988420963
        outSlope: -.988420963
        tangentMode: 0
      - time: .0833333358
        value: -.793353319
        inSlope: -.956132472
        outSlope: -.956132472
        tangentMode: 0
      - time: .100000001
        value: -.809017003
        inSlope: -.923186004
        outSlope: -.923186004
        tangentMode: 0
      - time: .116666667
        value: -.824126184
        inSlope: -.889606357
        outSlope: -.889606357
        tangentMode: 0
      - time: .13333334
        value: -.838670552
        inSlope: -.855418921
        outSlope: -.855418921
        tangentMode: 0
      - time: .150000006
        value: -.852640152
        inSlope: -.820646942
        outSlope: -.820646942
        tangentMode: 0
      - time: .166666672
        value: -.866025448
        inSlope: -.785309732
        outSlope: -.785309732
        tangentMode: 0
      - time: .183333337
        value: -.878817141
        inSlope: -.749432504
        outSlope: -.749432504
        tangentMode: 0
      - time: .200000003
        value: -.891006529
        inSlope: -.713043869
        outSlope: -.713043869
        tangentMode: 0
      - time: .216666669
        value: -.902585268
        inSlope: -.676168859
        outSlope: -.676168859
        tangentMode: 0
      - time: .233333334
        value: -.913545489
        inSlope: -.638827145
        outSlope: -.638827145
        tangentMode: 0
      - time: .25
        value: -.923879504
        inSlope: -.601047039
        outSlope: -.601047039
        tangentMode: 0
      - time: .266666681
        value: -.933580399
        inSlope: -.562859297
        outSlope: -.562859297
        tangentMode: 0
      - time: .283333361
        value: -.942641497
        inSlope: -.524283767
        outSlope: -.524283767
        tangentMode: 0
      - time: .300000042
        value: -.95105654
        inSlope: -.485347092
        outSlope: -.485347092
        tangentMode: 0
      - time: .316666722
        value: -.958819747
        inSlope: -.446079612
        outSlope: -.446079612
        tangentMode: 0
      - time: .333333403
        value: -.965925872
        inSlope: -.398234397
        outSlope: -.398234397
        tangentMode: 0
      - time: .350000083
        value: -.972094238
        inSlope: -.340268314
        outSlope: -.340268314
        tangentMode: 0
      - time: .366666764
        value: -.977268159
        inSlope: -.288732409
        outSlope: -.288732409
        tangentMode: 0
      - time: .383333445
        value: -.981718659
        inSlope: -.251294166
        outSlope: -.251294166
        tangentMode: 0
      - time: .400000125
        value: -.985644639
        inSlope: -.223735392
        outSlope: -.223735392
        tangentMode: 0
      - time: .416666806
        value: -.989176512
        inSlope: -.20191294
        outSlope: -.20191294
        tangentMode: 0
      - time: .433333486
        value: -.992375076
        inSlope: -.181399435
        outSlope: -.181399435
        tangentMode: 0
      - time: .450000167
        value: -.995223165
        inSlope: -.15712367
        outSlope: -.15712367
        tangentMode: 0
      - time: .466666847
        value: -.997612536
        inSlope: -.123013154
        outSlope: -.123013154
        tangentMode: 0
      - time: .483333528
        value: -.999323606
        inSlope: -.071623899
        outSlope: -.071623899
        tangentMode: 0
      - time: .500000179
        value: -1
        inSlope: .00585973822
        outSlope: .00585973822
        tangentMode: 0
      - time: .51666683
        value: -.999128282
        inSlope: .115993127
        outSlope: .115993127
        tangentMode: 0
      - time: .53333348
        value: -.996133566
        inSlope: .258386374
        outSlope: .258386374
        tangentMode: 0
      - time: .550000131
        value: -.990515411
        inSlope: .427229822
        outSlope: .427229822
        tangentMode: 0
      - time: .566666782
        value: -.981892586
        inSlope: .614526868
        outSlope: .614526868
        tangentMode: 0
      - time: .583333433
        value: -.970031202
        inSlope: .810843289
        outSlope: .810843289
        tangentMode: 0
      - time: .600000083
        value: -.954864502
        inSlope: 1.00581861
        outSlope: 1.00581861
        tangentMode: 0
      - time: .616666734
        value: -.936503947
        inSlope: 1.18870258
        outSlope: 1.18870258
        tangentMode: 0
      - time: .633333385
        value: -.915241122
        inSlope: 1.34889674
        outSlope: 1.34889674
        tangentMode: 0
      - time: .650000036
        value: -.891540766
        inSlope: 1.47647333
        outSlope: 1.47647333
        tangentMode: 0
      - time: .666666687
        value: -.866025388
        inSlope: 1.58610797
        outSlope: 1.58610797
        tangentMode: 0
      - time: .683333337
        value: -.838670552
        inSlope: 1.71025324
        outSlope: 1.71025324
        tangentMode: 0
      - time: .699999988
        value: -.809017003
        inSlope: 1.84573698
        outSlope: 1.84573698
        tangentMode: 0
      - time: .716666639
        value: -.777146041
        inSlope: 1.9761641
        outSlope: 1.9761641
        tangentMode: 0
      - time: .73333329
        value: -.743144929
        inSlope: 2.10117483
        outSlope: 2.10117483
        tangentMode: 0
      - time: .74999994
        value: -.707106948
        inSlope: 2.22042608
        outSlope: 2.22042608
        tangentMode: 0
      - time: .766666591
        value: -.669130802
        inSlope: 2.33359027
        outSlope: 2.33359027
        tangentMode: 0
      - time: .783333242
        value: -.629320681
        inSlope: 2.44036555
        outSlope: 2.44036555
        tangentMode: 0
      - time: .799999893
        value: -.587785363
        inSlope: 2.5404458
        outSlope: 2.5404458
        tangentMode: 0
      - time: .816666543
        value: -.54463923
        inSlope: 2.63355637
        outSlope: 2.63355637
        tangentMode: 0
      - time: .833333194
        value: -.500000238
        inSlope: 2.75095415
        outSlope: 2.75095415
        tangentMode: 0
      - time: .849999845
        value: -.452940851
        inSlope: 2.9128058
        outSlope: 2.9128058
        tangentMode: 0
      - time: .866666496
        value: -.402906805
        inSlope: 3.06850719
        outSlope: 3.06850719
        tangentMode: 0
      - time: .883333147
        value: -.350657374
        inSlope: 3.17594433
        outSlope: 3.17594433
        tangentMode: 0
      - time: .899999797
        value: -.297042102
        inSlope: 3.23029423
        outSlope: 3.23029423
        tangentMode: 0
      - time: .916666448
        value: -.242981002
        inSlope: 3.22809601
        outSlope: 3.22809601
        tangentMode: 0
      - time: .933333099
        value: -.189438999
        inSlope: 3.16737366
        outSlope: 3.16737366
        tangentMode: 0
      - time: .94999975
        value: -.137401983
        inSlope: 3.04761267
        outSlope: 3.04761267
        tangentMode: 0
      - time: .9666664
        value: -.0878520012
        inSlope: 2.86968708
        outSlope: 2.86968708
        tangentMode: 0
      - time: .983333051
        value: -.0417458378
        inSlope: 2.63553667
        outSlope: 2.63553667
        tangentMode: 0
      - time: .999999702
        value: -8.66251526e-07
        inSlope: 2.35558796
        outSlope: 2.35558796
        tangentMode: 0
      - time: 1.01666641
        value: .0367738195
        inSlope: 2.07180977
        outSlope: 2.07180977
        tangentMode: 0
      - time: 1.03333306
        value: .069059521
        inSlope: 1.82556725
        outSlope: 1.82556725
        tangentMode: 0
      - time: 1.04999971
        value: .0976260006
        inSlope: 1.62585497
        outSlope: 1.62585497
        tangentMode: 0
      - time: 1.06666636
        value: .123254634
        inSlope: 1.47312248
        outSlope: 1.47312248
        tangentMode: 0
      - time: 1.08333302
        value: .146730036
        inSlope: 1.36734796
        outSlope: 1.36734796
        tangentMode: 0
      - time: 1.09999967
        value: .168832853
        inSlope: 1.30822051
        outSlope: 1.30822051
        tangentMode: 0
      - time: 1.11666632
        value: .190337345
        inSlope: 1.29521716
        outSlope: 1.29521716
        tangentMode: 0
      - time: 1.13333297
        value: .212006718
        inSlope: 1.32759285
        outSlope: 1.32759285
        tangentMode: 0
      - time: 1.14999962
        value: .234590396
        inSlope: 1.40435863
        outSlope: 1.40435863
        tangentMode: 0
      - time: 1.16666627
        value: .258818626
        inSlope: 1.48273325
        outSlope: 1.48273325
        tangentMode: 0
      - time: 1.18333292
        value: .284014791
        inSlope: 1.50593841
        outSlope: 1.50593841
        tangentMode: 0
      - time: 1.19999957
        value: .309016526
        inSlope: 1.49373889
        outSlope: 1.49373889
        tangentMode: 0
      - time: 1.21666622
        value: .333806038
        inSlope: 1.4805218
        outSlope: 1.4805218
        tangentMode: 0
      - time: 1.23333287
        value: .358367205
        inSlope: 1.46629715
        outSlope: 1.46629715
        tangentMode: 0
      - time: 1.24999952
        value: .382682562
        inSlope: 1.45106125
        outSlope: 1.45106125
        tangentMode: 0
      - time: 1.26666617
        value: .406735867
        inSlope: 1.43483663
        outSlope: 1.43483663
        tangentMode: 0
      - time: 1.28333282
        value: .430510402
        inSlope: 1.41761589
        outSlope: 1.41761589
        tangentMode: 0
      - time: 1.29999948
        value: .453989685
        inSlope: 1.39943051
        outSlope: 1.39943051
        tangentMode: 0
      - time: 1.31666613
        value: .47715804
        inSlope: 1.38027954
        outSlope: 1.38027954
        tangentMode: 0
      - time: 1.33333278
        value: .499998957
        inSlope: 1.36018801
        outSlope: 1.36018801
        tangentMode: 0
      - time: 1.34999943
        value: .522497594
        inSlope: 1.33917737
        outSlope: 1.33917737
        tangentMode: 0
      - time: 1.36666608
        value: .544638157
        inSlope: 1.31723237
        outSlope: 1.31723237
        tangentMode: 0
      - time: 1.38333273
        value: .566405296
        inSlope: 1.29438698
        outSlope: 1.29438698
        tangentMode: 0
      - time: 1.39999938
        value: .58778435
        inSlope: 1.27066195
        outSlope: 1.27066195
        tangentMode: 0
      - time: 1.41666603
        value: .608760655
        inSlope: 1.24605536
        outSlope: 1.24605536
        tangentMode: 0
      - time: 1.43333268
        value: .629319489
        inSlope: 1.22059941
        outSlope: 1.22059941
        tangentMode: 0
      - time: 1.44999933
        value: .649447262
        inSlope: 1.19430828
        outSlope: 1.19430828
        tangentMode: 0
      - time: 1.46666598
        value: .669129729
        inSlope: 1.16719651
        outSlope: 1.16719651
        tangentMode: 0
      - time: 1.48333263
        value: .688353777
        inSlope: 1.13928628
        outSlope: 1.13928628
        tangentMode: 0
      - time: 1.5
        value: .707106709
        inSlope: 1.12512875
        outSlope: 1.12512875
        tangentMode: 0
      m_PreInfinity: 2
      m_PostInfinity: 2
    attribute: m_LocalRotation.y
    path: 
    classID: 4
    script: {fileID: 0}
  - curve:
      serializedVersion: 2
      m_Curve:
      - time: 0
        value: -0
        inSlope: 0
        outSlope: 0
        tangentMode: 0
      - time: .0166666675
        value: -0
        inSlope: 0
        outSlope: 0
        tangentMode: 0
      - time: .0333333351
        value: -0
        inSlope: 0
        outSlope: 0
        tangentMode: 0
      - time: .0500000045
        value: -0
        inSlope: 0
        outSlope: 0
        tangentMode: 0
      - time: .0666666701
        value: -0
        inSlope: 0
        outSlope: 0
        tangentMode: 0
      - time: .0833333358
        value: -0
        inSlope: 0
        outSlope: 0
        tangentMode: 0
      - time: .100000001
        value: -0
        inSlope: 0
        outSlope: 0
        tangentMode: 0
      - time: .116666667
        value: -0
        inSlope: 0
        outSlope: 0
        tangentMode: 0
      - time: .13333334
        value: -0
        inSlope: 0
        outSlope: 0
        tangentMode: 0
      - time: .150000006
        value: -0
        inSlope: 0
        outSlope: 0
        tangentMode: 0
      - time: .166666672
        value: -0
        inSlope: 0
        outSlope: 0
        tangentMode: 0
      - time: .183333337
        value: -0
        inSlope: 0
        outSlope: 0
        tangentMode: 0
      - time: .200000003
        value: -0
        inSlope: 0
        outSlope: 0
        tangentMode: 0
      - time: .216666669
        value: -0
        inSlope: 0
        outSlope: 0
        tangentMode: 0
      - time: .233333334
        value: -0
        inSlope: 0
        outSlope: 0
        tangentMode: 0
      - time: .25
        value: -0
        inSlope: 0
        outSlope: 0
        tangentMode: 0
      - time: .266666681
        value: -0
        inSlope: 0
        outSlope: 0
        tangentMode: 0
      - time: .283333361
        value: -0
        inSlope: 0
        outSlope: 0
        tangentMode: 0
      - time: .300000042
        value: -0
        inSlope: 0
        outSlope: 0
        tangentMode: 0
      - time: .316666722
        value: -0
        inSlope: 0
        outSlope: 0
        tangentMode: 0
      - time: .333333403
        value: -0
        inSlope: 0
        outSlope: 0
        tangentMode: 0
      - time: .350000083
        value: -0
        inSlope: 0
        outSlope: 0
        tangentMode: 0
      - time: .366666764
        value: -0
        inSlope: 0
        outSlope: 0
        tangentMode: 0
      - time: .383333445
        value: -0
        inSlope: 0
        outSlope: 0
        tangentMode: 0
      - time: .400000125
        value: -0
        inSlope: 0
        outSlope: 0
        tangentMode: 0
      - time: .416666806
        value: -0
        inSlope: 0
        outSlope: 0
        tangentMode: 0
      - time: .433333486
        value: -0
        inSlope: 0
        outSlope: 0
        tangentMode: 0
      - time: .450000167
        value: -0
        inSlope: 0
        outSlope: 0
        tangentMode: 0
      - time: .466666847
        value: -0
        inSlope: 0
        outSlope: 0
        tangentMode: 0
      - time: .483333528
        value: -0
        inSlope: 0
        outSlope: 0
        tangentMode: 0
      - time: .500000179
        value: -0
        inSlope: 0
        outSlope: 0
        tangentMode: 0
      - time: .51666683
        value: -0
        inSlope: 0
        outSlope: 0
        tangentMode: 0
      - time: .53333348
        value: -0
        inSlope: 0
        outSlope: 0
        tangentMode: 0
      - time: .550000131
        value: -0
        inSlope: 0
        outSlope: 0
        tangentMode: 0
      - time: .566666782
        value: -0
        inSlope: 0
        outSlope: 0
        tangentMode: 0
      - time: .583333433
        value: -0
        inSlope: 0
        outSlope: 0
        tangentMode: 0
      - time: .600000083
        value: -0
        inSlope: 0
        outSlope: 0
        tangentMode: 0
      - time: .616666734
        value: -0
        inSlope: 0
        outSlope: 0
        tangentMode: 0
      - time: .633333385
        value: -0
        inSlope: 0
        outSlope: 0
        tangentMode: 0
      - time: .650000036
        value: -0
        inSlope: 0
        outSlope: 0
        tangentMode: 0
      - time: .666666687
        value: -0
        inSlope: 0
        outSlope: 0
        tangentMode: 0
      - time: .683333337
        value: -0
        inSlope: 0
        outSlope: 0
        tangentMode: 0
      - time: .699999988
        value: -0
        inSlope: 0
        outSlope: 0
        tangentMode: 0
      - time: .716666639
        value: -0
        inSlope: 0
        outSlope: 0
        tangentMode: 0
      - time: .73333329
        value: -0
        inSlope: 0
        outSlope: 0
        tangentMode: 0
      - time: .74999994
        value: -0
        inSlope: 0
        outSlope: 0
        tangentMode: 0
      - time: .766666591
        value: -0
        inSlope: 0
        outSlope: 0
        tangentMode: 0
      - time: .783333242
        value: -0
        inSlope: 0
        outSlope: 0
        tangentMode: 0
      - time: .799999893
        value: -0
        inSlope: 0
        outSlope: 0
        tangentMode: 0
      - time: .816666543
        value: -0
        inSlope: 0
        outSlope: 0
        tangentMode: 0
      - time: .833333194
        value: -0
        inSlope: 0
        outSlope: 0
        tangentMode: 0
      - time: .849999845
        value: -0
        inSlope: 0
        outSlope: 0
        tangentMode: 0
      - time: .866666496
        value: -0
        inSlope: 0
        outSlope: 0
        tangentMode: 0
      - time: .883333147
        value: -0
        inSlope: 0
        outSlope: 0
        tangentMode: 0
      - time: .899999797
        value: -0
        inSlope: 0
        outSlope: 0
        tangentMode: 0
      - time: .916666448
        value: -0
        inSlope: 0
        outSlope: 0
        tangentMode: 0
      - time: .933333099
        value: -0
        inSlope: 0
        outSlope: 0
        tangentMode: 0
      - time: .94999975
        value: -0
        inSlope: 0
        outSlope: 0
        tangentMode: 0
      - time: .9666664
        value: -0
        inSlope: 0
        outSlope: 0
        tangentMode: 0
      - time: .983333051
        value: -0
        inSlope: 0
        outSlope: 0
        tangentMode: 0
      - time: .999999702
        value: -0
        inSlope: 0
        outSlope: 0
        tangentMode: 0
      - time: 1.01666641
        value: -0
        inSlope: 0
        outSlope: 0
        tangentMode: 0
      - time: 1.03333306
        value: -0
        inSlope: 0
        outSlope: 0
        tangentMode: 0
      - time: 1.04999971
        value: -0
        inSlope: 0
        outSlope: 0
        tangentMode: 0
      - time: 1.06666636
        value: -0
        inSlope: 0
        outSlope: 0
        tangentMode: 0
      - time: 1.08333302
        value: -0
        inSlope: 0
        outSlope: 0
        tangentMode: 0
      - time: 1.09999967
        value: -0
        inSlope: 0
        outSlope: 0
        tangentMode: 0
      - time: 1.11666632
        value: -0
        inSlope: 0
        outSlope: 0
        tangentMode: 0
      - time: 1.13333297
        value: -0
        inSlope: 0
        outSlope: 0
        tangentMode: 0
      - time: 1.14999962
        value: -0
        inSlope: 0
        outSlope: 0
        tangentMode: 0
      - time: 1.16666627
        value: -0
        inSlope: 0
        outSlope: 0
        tangentMode: 0
      - time: 1.18333292
        value: -0
        inSlope: 0
        outSlope: 0
        tangentMode: 0
      - time: 1.19999957
        value: -0
        inSlope: 0
        outSlope: 0
        tangentMode: 0
      - time: 1.21666622
        value: -0
        inSlope: 0
        outSlope: 0
        tangentMode: 0
      - time: 1.23333287
        value: -0
        inSlope: 0
        outSlope: 0
        tangentMode: 0
      - time: 1.24999952
        value: -0
        inSlope: 0
        outSlope: 0
        tangentMode: 0
      - time: 1.26666617
        value: -0
        inSlope: 0
        outSlope: 0
        tangentMode: 0
      - time: 1.28333282
        value: -0
        inSlope: 0
        outSlope: 0
        tangentMode: 0
      - time: 1.29999948
        value: -0
        inSlope: 0
        outSlope: 0
        tangentMode: 0
      - time: 1.31666613
        value: -0
        inSlope: 0
        outSlope: 0
        tangentMode: 0
      - time: 1.33333278
        value: -0
        inSlope: 0
        outSlope: 0
        tangentMode: 0
      - time: 1.34999943
        value: -0
        inSlope: 0
        outSlope: 0
        tangentMode: 0
      - time: 1.36666608
        value: -0
        inSlope: 0
        outSlope: 0
        tangentMode: 0
      - time: 1.38333273
        value: -0
        inSlope: 0
        outSlope: 0
        tangentMode: 0
      - time: 1.39999938
        value: -0
        inSlope: 0
        outSlope: 0
        tangentMode: 0
      - time: 1.41666603
        value: -0
        inSlope: 0
        outSlope: 0
        tangentMode: 0
      - time: 1.43333268
        value: -0
        inSlope: 0
        outSlope: 0
        tangentMode: 0
      - time: 1.44999933
        value: -0
        inSlope: 0
        outSlope: 0
        tangentMode: 0
      - time: 1.46666598
        value: -0
        inSlope: 0
        outSlope: 0
        tangentMode: 0
      - time: 1.48333263
        value: -0
        inSlope: 0
        outSlope: 0
        tangentMode: 0
      - time: 1.5
        value: -0
        inSlope: 0
        outSlope: 0
        tangentMode: 0
      m_PreInfinity: 2
      m_PostInfinity: 2
    attribute: m_LocalRotation.z
    path: 
    classID: 4
    script: {fileID: 0}
  - curve:
      serializedVersion: 2
      m_Curve:
      - time: 0
        value: -.707106769
        inSlope: 1.12513304
        outSlope: 1.12513304
        tangentMode: 0
      - time: .0166666675
        value: -.688354552
        inSlope: 1.13928604
        outSlope: 1.13928604
        tangentMode: 0
      - time: .0333333351
        value: -.669130564
        inSlope: 1.16719532
        outSlope: 1.16719532
        tangentMode: 0
      - time: .0500000045
        value: -.649448037
        inSlope: 1.19430351
        outSlope: 1.19430351
        tangentMode: 0
      - time: .0666666701
        value: -.629320443
        inSlope: 1.22059834
        outSlope: 1.22059834
        tangentMode: 0
      - time: .0833333358
        value: -.60876143
        inSlope: 1.24605429
        outSlope: 1.24605429
        tangentMode: 0
      - time: .100000001
        value: -.587785304
        inSlope: 1.27065551
        outSlope: 1.27065551
        tangentMode: 0
      - time: .116666667
        value: -.56640625
        inSlope: 1.29438734
        outSlope: 1.29438734
        tangentMode: 0
      - time: .13333334
        value: -.544639051
        inSlope: 1.31722903
        outSlope: 1.31722903
        tangentMode: 0
      - time: .150000006
        value: -.522498608
        inSlope: 1.3391726
        outSlope: 1.3391726
        tangentMode: 0
      - time: .166666672
        value: -.49999997
        inSlope: 1.36019564
        outSlope: 1.36019564
        tangentMode: 0
      - time: .183333337
        value: -.477158755
        inSlope: 1.38028359
        outSlope: 1.38028359
        tangentMode: 0
      - time: .200000003
        value: -.453990519
        inSlope: 1.39942837
        outSlope: 1.39942837
        tangentMode: 0
      - time: .216666669
        value: -.430511147
        inSlope: 1.41761732
        outSlope: 1.41761732
        tangentMode: 0
      - time: .233333334
        value: -.406736612
        inSlope: 1.43483174
        outSlope: 1.43483174
        tangentMode: 0
      - time: .25
        value: -.382683426
        inSlope: 1.45105839
        outSlope: 1.45105839
        tangentMode: 0
      - time: .266666681
        value: -.35836798
        inSlope: 1.46629453
        outSlope: 1.46629453
        tangentMode: 0
      - time: .283333361
        value: -.333806902
        inSlope: 1.48052907
        outSlope: 1.48052907
        tangentMode: 0
      - time: .300000042
        value: -.309016973
        inSlope: 1.49374866
        outSlope: 1.49374866
        tangentMode: 0
      - time: .316666722
        value: -.284015238
        inSlope: 1.50593925
        outSlope: 1.50593925
        tangentMode: 0
      - time: .333333403
        value: -.258818954
        inSlope: 1.4827342
        outSlope: 1.4827342
        tangentMode: 0
      - time: .350000083
        value: -.234590724
        inSlope: 1.40435922
        outSlope: 1.40435922
        tangentMode: 0
      - time: .366666764
        value: -.212006941
        inSlope: 1.32758999
        outSlope: 1.32758999
        tangentMode: 0
      - time: .383333445
        value: -.190337688
        inSlope: 1.2952081
        outSlope: 1.2952081
        tangentMode: 0
      - time: .400000125
        value: -.1688333
        inSlope: 1.30821824
        outSlope: 1.30821824
        tangentMode: 0
      - time: .416666806
        value: -.146730378
        inSlope: 1.36735213
        outSlope: 1.36735213
        tangentMode: 0
      - time: .433333486
        value: -.123254858
        inSlope: 1.47312689
        outSlope: 1.47312689
        tangentMode: 0
      - time: .450000167
        value: -.097626105
        inSlope: 1.62585187
        outSlope: 1.62585187
        tangentMode: 0
      - time: .466666847
        value: -.0690597519
        inSlope: 1.82556021
        outSlope: 1.82556021
        tangentMode: 0
      - time: .483333528
        value: -.0367740467
        inSlope: 2.071805
        outSlope: 2.071805
        tangentMode: 0
      - time: .500000179
        value: 4.01339264e-07
        inSlope: 2.35558128
        outSlope: 2.35558128
        tangentMode: 0
      - time: .51666683
        value: .0417452529
        inSlope: 2.63554025
        outSlope: 2.63554025
        tangentMode: 0
      - time: .53333348
        value: .0878516585
        inSlope: 2.86969423
        outSlope: 2.86969423
        tangentMode: 0
      - time: .550000131
        value: .13740164
        inSlope: 3.04760981
        outSlope: 3.04760981
        tangentMode: 0
      - time: .566666782
        value: .189438552
        inSlope: 3.16736698
        outSlope: 3.16736698
        tangentMode: 0
      - time: .583333433
        value: .242980435
        inSlope: 3.22809982
        outSlope: 3.22809982
        tangentMode: 0
      - time: .600000083
        value: .297041774
        inSlope: 3.23030138
        outSlope: 3.23030138
        tangentMode: 0
      - time: .616666734
        value: .350657046
        inSlope: 3.17594767
        outSlope: 3.17594767
        tangentMode: 0
      - time: .633333385
        value: .402906597
        inSlope: 3.06850481
        outSlope: 3.06850481
        tangentMode: 0
      - time: .650000036
        value: .452940434
        inSlope: 2.91280675
        outSlope: 2.91280675
        tangentMode: 0
      - time: .666666687
        value: .50000006
        inSlope: 2.7509613
        outSlope: 2.7509613
        tangentMode: 0
      - time: .683333337
        value: .544639051
        inSlope: 2.63355637
        outSlope: 2.63355637
        tangentMode: 0
      - time: .699999988
        value: .587785184
        inSlope: 2.54044056
        outSlope: 2.54044056
        tangentMode: 0
      - time: .716666639
        value: .629320323
        inSlope: 2.44036198
        outSlope: 2.44036198
        tangentMode: 0
      - time: .73333329
        value: .669130504
        inSlope: 2.33359027
        outSlope: 2.33359027
        tangentMode: 0
      - time: .74999994
        value: .70710659
        inSlope: 2.22042608
        outSlope: 2.22042608
        tangentMode: 0
      - time: .766666591
        value: .743144631
        inSlope: 2.10117674
        outSlope: 2.10117674
        tangentMode: 0
      - time: .783333242
        value: .777145743
        inSlope: 1.97616935
        outSlope: 1.97616935
        tangentMode: 0
      - time: .799999893
        value: .809016883
        inSlope: 1.84574246
        outSlope: 1.84574246
        tangentMode: 0
      - time: .816666543
        value: .838670433
        inSlope: 1.71025324
        outSlope: 1.71025324
        tangentMode: 0
      - time: .833333194
        value: .866025269
        inSlope: 1.58610606
        outSlope: 1.58610606
        tangentMode: 0
      - time: .849999845
        value: .891540587
        inSlope: 1.47647333
        outSlope: 1.47647333
        tangentMode: 0
      - time: .866666496
        value: .915241003
        inSlope: 1.34889841
        outSlope: 1.34889841
        tangentMode: 0
      - time: .883333147
        value: .936503828
        inSlope: 1.18870258
        outSlope: 1.18870258
        tangentMode: 0
      - time: .899999797
        value: .954864383
        inSlope: 1.00581682
        outSlope: 1.00581682
        tangentMode: 0
      - time: .916666448
        value: .970031023
        inSlope: .810843289
        outSlope: .810843289
        tangentMode: 0
      - time: .933333099
        value: .981892467
        inSlope: .614530444
        outSlope: .614530444
        tangentMode: 0
      - time: .94999975
        value: .990515351
        inSlope: .427233398
        outSlope: .427233398
        tangentMode: 0
      - time: .9666664
        value: .996133566
        inSlope: .258388162
        outSlope: .258388162
        tangentMode: 0
      - time: .983333051
        value: .999128282
        inSlope: .115993127
        outSlope: .115993127
        tangentMode: 0
      - time: .999999702
        value: 1
        inSlope: .00585981086
        outSlope: .00585981086
        tangentMode: 0
      - time: 1.01666641
        value: .999323606
        inSlope: -.0716239139
        outSlope: -.0716239139
        tangentMode: 0
      - time: 1.03333306
        value: .997612536
        inSlope: -.123013377
        outSlope: -.123013377
        tangentMode: 0
      - time: 1.04999971
        value: .995223165
        inSlope: -.157123953
        outSlope: -.157123953
        tangentMode: 0
      - time: 1.06666636
        value: .992375076
        inSlope: -.181397974
        outSlope: -.181397974
        tangentMode: 0
      - time: 1.08333302
        value: .989176571
        inSlope: -.201911524
        outSlope: -.201911524
        tangentMode: 0
      - time: 1.09999967
        value: .985644698
        inSlope: -.22373578
        outSlope: -.22373578
        tangentMode: 0
      - time: 1.11666632
        value: .981718719
        inSlope: -.251294613
        outSlope: -.251294613
        tangentMode: 0
      - time: 1.13333297
        value: .977268219
        inSlope: -.288732946
        outSlope: -.288732946
        tangentMode: 0
      - time: 1.14999962
        value: .972094297
        inSlope: -.34026894
        outSlope: -.34026894
        tangentMode: 0
      - time: 1.16666627
        value: .965925932
        inSlope: -.398231536
        outSlope: -.398231536
        tangentMode: 0
      - time: 1.18333292
        value: .958819926
        inSlope: -.446078598
        outSlope: -.446078598
        tangentMode: 0
      - time: 1.19999957
        value: .951056659
        inSlope: -.48534441
        outSlope: -.48534441
        tangentMode: 0
      - time: 1.21666622
        value: .942641795
        inSlope: -.524279356
        outSlope: -.524279356
        tangentMode: 0
      - time: 1.23333287
        value: .933580697
        inSlope: -.562856734
        outSlope: -.562856734
        tangentMode: 0
      - time: 1.24999952
        value: .923879921
        inSlope: -.601047873
        outSlope: -.601047873
        tangentMode: 0
      - time: 1.26666617
        value: .913545787
        inSlope: -.63882947
        outSlope: -.63882947
        tangentMode: 0
      - time: 1.28333282
        value: .902585626
        inSlope: -.676165879
        outSlope: -.676165879
        tangentMode: 0
      - time: 1.29999948
        value: .891006947
        inSlope: -.713044524
        outSlope: -.713044524
        tangentMode: 0
      - time: 1.31666613
        value: .878817499
        inSlope: -.749429584
        outSlope: -.749429584
        tangentMode: 0
      - time: 1.33333278
        value: .866025984
        inSlope: -.785303235
        outSlope: -.785303235
        tangentMode: 0
      - time: 1.34999943
        value: .852640748
        inSlope: -.820645869
        outSlope: -.820645869
        tangentMode: 0
      - time: 1.36666608
        value: .838671148
        inSlope: -.855418086
        outSlope: -.855418086
        tangentMode: 0
      - time: 1.38333273
        value: .82412684
        inSlope: -.889605522
        outSlope: -.889605522
        tangentMode: 0
      - time: 1.39999938
        value: .809017658
        inSlope: -.923186839
        outSlope: -.923186839
        tangentMode: 0
      - time: 1.41666603
        value: .793353975
        inSlope: -.956129789
        outSlope: -.956129789
        tangentMode: 0
      - time: 1.43333268
        value: .777146697
        inSlope: -.98842001
        outSlope: -.98842001
        tangentMode: 0
      - time: 1.44999933
        value: .760406673
        inSlope: -1.02003253
        outSlope: -1.02003253
        tangentMode: 0
      - time: 1.46666598
        value: .743145645
        inSlope: -1.05094767
        outSlope: -1.05094767
        tangentMode: 0
      - time: 1.48333263
        value: .725375116
        inSlope: -1.08114195
        outSlope: -1.08114195
        tangentMode: 0
      - time: 1.5
        value: .707106829
        inSlope: -1.09605122
        outSlope: -1.09605122
        tangentMode: 0
      m_PreInfinity: 2
      m_PostInfinity: 2
    attribute: m_LocalRotation.w
    path: 
    classID: 4
    script: {fileID: 0}
  m_EulerEditorCurves:
  - curve:
      serializedVersion: 2
      m_Curve:
      - time: 0
        value: 90
        inSlope: 180
        outSlope: 180
        tangentMode: 10
      - time: .166666672
        value: 120
        inSlope: 180
        outSlope: 180
        tangentMode: 10
      - time: .333333343
        value: 150
        inSlope: 180
        outSlope: 180
        tangentMode: 10
      - time: .5
        value: 180
        inSlope: 270
        outSlope: 270
        tangentMode: 10
      - time: .666666687
        value: 240
        inSlope: 360.000031
        outSlope: 360.000031
        tangentMode: 10
      - time: .833333313
        value: 300
        inSlope: 360.000031
        outSlope: 360.000031
        tangentMode: 10
      - time: 1
        value: 360
        inSlope: 270
        outSlope: 270
        tangentMode: 10
      - time: 1.16666663
        value: 390
        inSlope: 179.999969
        outSlope: 179.999969
        tangentMode: 10
      - time: 1.33333337
        value: 420
        inSlope: 179.999969
        outSlope: 179.999969
        tangentMode: 10
      - time: 1.5
        value: 450
        inSlope: 180.000046
        outSlope: 180.000046
        tangentMode: 10
      m_PreInfinity: 2
      m_PostInfinity: 2
    attribute: localEulerAnglesBaked.y
    path: 
    classID: 4
    script: {fileID: 0}
  - curve:
      serializedVersion: 2
      m_Curve:
      - time: 0
        value: 0
        inSlope: 0
        outSlope: 0
        tangentMode: 10
      - time: .166666672
        value: 0
        inSlope: 0
        outSlope: 0
        tangentMode: 10
      - time: .333333343
        value: 0
        inSlope: 0
        outSlope: 0
        tangentMode: 10
      - time: .5
        value: 0
        inSlope: 0
        outSlope: 0
        tangentMode: 10
      - time: .666666687
        value: 0
        inSlope: 0
        outSlope: 0
        tangentMode: 10
      - time: .833333313
        value: 0
        inSlope: 0
        outSlope: 0
        tangentMode: 10
      - time: 1
        value: 0
        inSlope: 0
        outSlope: 0
        tangentMode: 10
      - time: 1.16666663
        value: 0
        inSlope: 0
        outSlope: 0
        tangentMode: 10
      - time: 1.33333337
        value: 0
        inSlope: 0
        outSlope: 0
        tangentMode: 10
      - time: 1.5
        value: 0
        inSlope: 0
        outSlope: 0
        tangentMode: 10
      m_PreInfinity: 2
      m_PostInfinity: 2
    attribute: localEulerAnglesBaked.z
    path: 
    classID: 4
    script: {fileID: 0}
  - curve:
      serializedVersion: 2
      m_Curve:
      - time: 0
        value: 0
        inSlope: 0
        outSlope: 0
        tangentMode: 10
      - time: .166666672
        value: 0
        inSlope: 0
        outSlope: 0
        tangentMode: 10
      - time: .333333343
        value: 0
        inSlope: 0
        outSlope: 0
        tangentMode: 10
      - time: .5
        value: 0
        inSlope: 0
        outSlope: 0
        tangentMode: 10
      - time: .666666687
        value: 0
        inSlope: 0
        outSlope: 0
        tangentMode: 10
      - time: .833333313
        value: 0
        inSlope: 0
        outSlope: 0
        tangentMode: 10
      - time: 1
        value: 0
        inSlope: 0
        outSlope: 0
        tangentMode: 10
      - time: 1.16666663
        value: 0
        inSlope: 0
        outSlope: 0
        tangentMode: 10
      - time: 1.33333337
        value: 0
        inSlope: 0
        outSlope: 0
        tangentMode: 10
      - time: 1.5
        value: 0
        inSlope: 0
        outSlope: 0
        tangentMode: 10
      m_PreInfinity: 2
      m_PostInfinity: 2
    attribute: localEulerAnglesBaked.x
    path: 
    classID: 4
    script: {fileID: 0}
  m_HasGenericRootTransform: 1
  m_HasMotionFloatCurves: 0
  m_GenerateMotionCurves: 0
  m_Events: []
